TYPE= OBJ
NB_OBJ= 1

## PLAN
## NAME
JOHN_PLAN
## POS
0.000000
0.000000
0.000000
## VECTOR
0.518339
0.110176
0.848048
## COLOR
f100
## BRILLANCE
0.000000
## EXTRA
0.000000
## LIMIT
0.000000
## LIMIT_MODE
0.000000
## REFL
0.000000
## END

