TYPE= OBJ
NB_OBJ= 1

## SPHERE
## NAME
SPHERE1
## POS
20.000000
80.000000
0.000000
## VECTOR
0.000000
0.000000
1.000000
## COLOR
f7f2b2
## BRILLANCE
0.500000
## EXTRA
46.000000
## LIMIT
0.000000
## LIMIT_MODE
0.000000
## REFL
0.000000
## END